{
  "main": {
    "id": "6da9a4c7d7514c21",
    "type": "split",
    "children": [
      {
        "id": "54db908563497023",
        "type": "tabs",
        "children": [
          {
            "id": "79963ae4863005e4",
            "type": "leaf",
            "state": {
              "type": "markdown",
              "state": {
                "file": "Databases/ElasticSearch/Analysis.md",
                "mode": "source",
                "source": false
              },
              "icon": "lucide-file",
              "title": "Analysis"
            }
          }
        ]
      }
    ],
    "direction": "vertical"
  },
  "left": {
    "id": "479cce5c0ddb3e5b",
    "type": "split",
    "children": [
      {
        "id": "21e955c4d46f6cd4",
        "type": "tabs",
        "children": [
          {
            "id": "26b29081b9e3ff8f",
            "type": "leaf",
            "state": {
              "type": "file-explorer",
              "state": {
                "sortOrder": "alphabetical",
                "autoReveal": false
              },
              "icon": "lucide-folder-closed",
              "title": "Files"
            }
          },
          {
            "id": "a5926df32508478b",
            "type": "leaf",
            "state": {
              "type": "search",
              "state": {
                "query": "",
                "matchingCase": false,
                "explainSearch": false,
                "collapseAll": false,
                "extraContext": false,
                "sortOrder": "alphabetical"
              },
              "icon": "lucide-search",
              "title": "Search"
            }
          },
          {
            "id": "721fe4f5829cd640",
            "type": "leaf",
            "state": {
              "type": "bookmarks",
              "state": {},
              "icon": "lucide-bookmark",
              "title": "Bookmarks"
            }
          }
        ]
      }
    ],
    "direction": "horizontal",
    "width": 300
  },
  "right": {
    "id": "9b7386be3f1e5cb2",
    "type": "split",
    "children": [
      {
        "id": "79b8914077a0da59",
        "type": "tabs",
        "children": [
          {
            "id": "698eee3e0cfbd60a",
            "type": "leaf",
            "state": {
              "type": "backlink",
              "state": {
                "collapseAll": false,
                "extraContext": false,
                "sortOrder": "alphabetical",
                "showSearch": false,
                "searchQuery": "",
                "backlinkCollapsed": false,
                "unlinkedCollapsed": true
              },
              "icon": "links-coming-in",
              "title": "Backlinks"
            }
          },
          {
            "id": "d1d2f5b4f32e3cb3",
            "type": "leaf",
            "state": {
              "type": "outgoing-link",
              "state": {
                "linksCollapsed": false,
                "unlinkedCollapsed": true
              },
              "icon": "links-going-out",
              "title": "Outgoing links"
            }
          },
          {
            "id": "c8da200e826d79da",
            "type": "leaf",
            "state": {
              "type": "tag",
              "state": {
                "sortOrder": "frequency",
                "useHierarchy": true
              },
              "icon": "lucide-tags",
              "title": "Tags"
            }
          },
          {
            "id": "42a251891ccdd387",
            "type": "leaf",
            "state": {
              "type": "outline",
              "state": {},
              "icon": "lucide-list",
              "title": "Outline"
            }
          },
          {
            "id": "18b047ef093afe0a",
            "type": "leaf",
            "state": {
              "type": "git-view",
              "state": {},
              "icon": "git-pull-request",
              "title": "Source Control"
            }
          }
        ],
        "currentTab": 4
      }
    ],
    "direction": "horizontal",
    "width": 261.5
  },
  "left-ribbon": {
    "hiddenItems": {
      "switcher:Open quick switcher": false,
      "graph:Open graph view": false,
      "canvas:Create new canvas": false,
      "daily-notes:Open today's daily note": false,
      "templates:Insert template": false,
      "command-palette:Open command palette": false,
      "obsidian-git:Open Git source control": false
    }
  },
  "active": "79963ae4863005e4",
  "lastOpenFiles": [
    "AI/Generative AI & LLM's/W1-Introduction LLM & lifecycle.md",
    "TimeSeries/Intro.md",
    "Markdown Cheatsheet.md",
    "url.md",
    "Python/Pandas/Index.md",
    "Python/Pandas/GroupBy.md",
    "Python/Pandas/Datetime.md",
    "Python/Pandas/RE.md",
    "Python/Pandas/Scales.md",
    "Electronics/Basics.md",
    "Rust/Collections.md",
    "Rust/Connections1.md",
    "Rust/Lifetimes_Rules.md",
    "Rust/References_and_Borrowing.md",
    "Rust/StringTypesInRust.png",
    "Databases/ElasticSearch/Analysis.md",
    "Electronics/images/Circuit_board.png",
    "Markdown/Mermaid.md",
    "Python/Algemeen/csv.md",
    "Boek/apache-hive-essentials-2nd.pdf",
    "Boek/deep-learning-visual-approach.pdf",
    "Vertaling/Engels.md",
    "Overig/Docker/commands.md",
    "Databases/Postgresql/pythonConnect.md",
    "Databases/Hive/Select.md"
  ]
}